…
## Task 5: Bootstrapping

``` r
# Set a random seed value so we can obtain the same "random" results
set.seed(631)

# Generate the 2000 bootstrap samples
boot_samps <- sim_dat %>% 
  bootstraps(times = 2000)

boot_samps
```

    ## # Bootstrap sampling 
    ## # A tibble: 2,000 × 2
    ##    splits          id           
    ##    <list>          <chr>        
    ##  1 <split [20/8]>  Bootstrap0001
    ##  2 <split [20/6]>  Bootstrap0002
    ##  3 <split [20/6]>  Bootstrap0003
    ##  4 <split [20/6]>  Bootstrap0004
    ##  5 <split [20/10]> Bootstrap0005
    ##  6 <split [20/10]> Bootstrap0006
    ##  7 <split [20/7]>  Bootstrap0007
    ##  8 <split [20/6]>  Bootstrap0008
    ##  9 <split [20/8]>  Bootstrap0009
    ## 10 <split [20/6]>  Bootstrap0010
    ## # … with 1,990 more rows
…
# Fit the model to each split and store the information
# Also, obtain the tidy model information
boot_models <- boot_samps %>% 
  mutate(
    model = map(splits, fit_mlr_boots),
    coef_info = map(model, tidy)
    )

boots_coefs <- boot_models %>% 
  unnest(coef_info)

boots_coefs
```

    ## # A tibble: 8,000 × 8
    ##    splits         id            model  term     estim…¹ std.e…² stati…³  p.value
    ##    <list>         <chr>         <list> <chr>      <dbl>   <dbl>   <dbl>    <dbl>
    ##  1 <split [20/8]> Bootstrap0001 <lm>   (Interc…  1.58    0.883    1.78  9.32e- 2
    ##  2 <split [20/8]> Bootstrap0001 <lm>   x1        0.172   0.158    1.09  2.93e- 1
    ##  3 <split [20/8]> Bootstrap0001 <lm>   x2       -0.499   0.0137 -36.3   8.29e-17
    ##  4 <split [20/8]> Bootstrap0001 <lm>   x3Yes     0.337   0.988    0.341 7.37e- 1
    ##  5 <split [20/6]> Bootstrap0002 <lm>   (Interc…  1.49    0.664    2.25  3.92e- 2
    ##  6 <split [20/6]> Bootstrap0002 <lm>   x1        0.0732  0.0910   0.804 4.33e- 1
    ##  7 <split [20/6]> Bootstrap0002 <lm>   x2       -0.481   0.0116 -41.4   1.07e-17
    ##  8 <split [20/6]> Bootstrap0002 <lm>   x3Yes     0.130   0.677    0.192 8.50e- 1
    ##  9 <split [20/6]> Bootstrap0003 <lm>   (Interc…  1.56    0.597    2.61  1.90e- 2
    ## 10 <split [20/6]> Bootstrap0003 <lm>   x1        0.163   0.107    1.52  1.49e- 1
    ## # … with 7,990 more rows, and abbreviated variable names ¹​estimate, ²​std.error,
    ## #   ³​statistic
…
